{
  "schemaVersion": 1,
  "id": "lod",
  "version": "${version}",

  "name": "${mod_name}",
  "description": "${description}",
  "authors": $authors,

  "contact": {
    "homepage": "${homepage}",
    "sources": "${source}",
    "issues": "${issues}"
  },

  "license": "LGPL-3",
  "icon": "icon.png",

  "accessWidener": "lod.accesswidener",

  "environment": "*",
  "entrypoints": {
    "client": [
      "com.seibel.lod.fabric.FabricClientMain"
    ],
    "server": [
      "com.seibel.lod.fabric.FabricDedicatedServerMain"
    ],

    "modmenu": [
      "com.seibel.lod.fabric.wrappers.config.ModMenuIntegration"
    ]
  },

  "mixins": [
    "DistantHorizons.mixins.json"
  ],

  "depends": {
    "fabricloader": "*",
    "fabric-api-base": "*",
    "fabric-lifecycle-events-v1": "*",
    "fabric-key-binding-api-v1": "*",
    "fabric-key-binding-api-v1": "*",
    "fabric-resource-loader-v0": "*",
    "minecraft": $compatible_minecraft_versions,
    "java": ">=${java_version}"
  },

  "custom": {
    "modmenu": {
      "links": {
        "modmenu.discord": "${discord}"
      }
    }
  }
}
